{
    "%vlocity_namespace%__ApprovedBy__c": "",
    "%vlocity_namespace%__ApprovedOn__c": "",
    "%vlocity_namespace%__AttributeAssignment__c": "iPhone-5c_AttributeAssignments.json",
    "%vlocity_namespace%__AttributeDefaultValues__c": "",
    "%vlocity_namespace%__AttributeMetadata__c": "",
    "%vlocity_namespace%__AttributeRules__c": "",
    "%vlocity_namespace%__CategoryData__c": [
        {
            "actions": {
            },
            "childCategories": [
                {
                    "actions": {
                    },
                    "childCategories": [
                    ],
                    "displaySequence": -1,
                    "fields": {
                    },
                    "id": "a2H360000014jFHEAY",
                    "messages": [
                    ],
                    "name": "Phones",
                    "nameResult": {
                    },
                    "uiStates": {
                    }
                }
            ],
            "displaySequence": -1,
            "fields": {
            },
            "id": "a2H360000014jF2EAI",
            "messages": [
            ],
            "name": "Root",
            "nameResult": {
            },
            "uiStates": {
            }
        }
    ],
    "%vlocity_namespace%__ChangeDetectorImplementation__c": "",
    "%vlocity_namespace%__ClassId__c": "",
    "%vlocity_namespace%__DefaultImageId__c": "",
    "%vlocity_namespace%__EffectiveDate__c": "",
    "%vlocity_namespace%__EndDate__c": "",
    "%vlocity_namespace%__GlobalKey__c": "cf5caa5f-5474-3cc1-d99a-871e62efd346",
    "%vlocity_namespace%__HeaderData__c": "",
    "%vlocity_namespace%__HelpText__c": "",
    "%vlocity_namespace%__IsConfigurable__c": true,
    "%vlocity_namespace%__IsLocationDependent__c": false,
    "%vlocity_namespace%__IsNotAssetizable__c": false,
    "%vlocity_namespace%__IsOrderable__c": false,
    "%vlocity_namespace%__JeopardySafetyIntervalUnit__c": "",
    "%vlocity_namespace%__JeopardySafetyInterval__c": "",
    "%vlocity_namespace%__Modification__c": "",
    "%vlocity_namespace%__ObjectTypeId__c": {
        "%vlocity_namespace%__GlobalKey__c": "5020eaae41baf0caa37bcb73b4a12934",
        "VlocityDataPackType": "VlocityLookupMatchingKeyObject",
        "VlocityLookupRecordSourceKey": "%vlocity_namespace%__ObjectClass__c/5020eaae41baf0caa37bcb73b4a12934",
        "VlocityRecordSObjectType": "%vlocity_namespace%__ObjectClass__c"
    },
    "%vlocity_namespace%__ParentClassId__c": "",
    "%vlocity_namespace%__PriceListEntry__c": "iPhone-5c_PriceListEntries.json",
    "%vlocity_namespace%__ProductChildItem__c": "iPhone-5c_ProductChildItems.json",
    "%vlocity_namespace%__ProductRelationship__c": "iPhone-5c_ProductRelationships.json",
    "%vlocity_namespace%__ProductSpecId__c": "",
    "%vlocity_namespace%__ProductTemplateProductId__c": "",
    "%vlocity_namespace%__Scope__c": "",
    "%vlocity_namespace%__SpecificationType__c": "Product",
    "%vlocity_namespace%__StandardPremium__c": "",
    "%vlocity_namespace%__Status__c": "Active",
    "%vlocity_namespace%__SubType__c": "Handset",
    "%vlocity_namespace%__TimeToLive__c": "",
    "%vlocity_namespace%__TrackAsAgreement__c": false,
    "%vlocity_namespace%__Type__c": "Product",
    "%vlocity_namespace%__VendorAccountId__c": "",
    "CanUseQuantitySchedule": false,
    "CanUseRevenueSchedule": false,
    "Description": "With the launch of the new iPhone 5s, the most forward-thinking smartphone in the world, iPhone 5c, the most colorful iPhone yet and iOS 7, the most significant iOS update since the original iPhone, Apple is ushering in the next generation of mobile computing, delivering an incredible new hardware and software experience that only Apple could create.",
    "DisplayUrl": "",
    "ExternalDataSourceId": "",
    "ExternalId": "",
    "Family": "Mobile",
    "IsActive": false,
    "Name": "iPhone 5c",
    "NumberOfQuantityInstallments": "",
    "NumberOfRevenueInstallments": "",
    "PricebookEntry": "iPhone-5c_PricebookEntries.json",
    "ProductCode": "VLO-MOB-0005",
    "QuantityInstallmentPeriod": "",
    "QuantityScheduleType": "",
    "QuantityUnitOfMeasure": "",
    "RecordTypeId": {
        "DeveloperName": "Product",
        "SobjectType": "Product2",
        "VlocityDataPackType": "VlocityLookupMatchingKeyObject",
        "VlocityLookupRecordSourceKey": "RecordType/Product2/Product",
        "VlocityRecordSObjectType": "RecordType"
    },
    "RevenueInstallmentPeriod": "",
    "RevenueScheduleType": "",
    "StandardPricebookEntry": [
        {
            "%vlocity_namespace%__FloorPrice__c": "",
            "%vlocity_namespace%__OverageCharge__c": "",
            "%vlocity_namespace%__OverageUOM__c": "",
            "%vlocity_namespace%__RecurringPrice__c": 0,
            "%vlocity_namespace%__RecurringUOM__c": "Monthly",
            "IsActive": false,
            "Name": "iPhone 5c",
            "Pricebook2.Name": "Standard Price Book",
            "Pricebook2Id": {
                "Name": "Standard Price Book",
                "VlocityDataPackType": "VlocityLookupMatchingKeyObject",
                "VlocityLookupRecordSourceKey": "Pricebook2/Standard Price Book",
                "VlocityRecordSObjectType": "Pricebook2"
            },
            "Product2.%vlocity_namespace%__GlobalKey__c": "cf5caa5f-5474-3cc1-d99a-871e62efd346",
            "Product2Id": {
                "%vlocity_namespace%__GlobalKey__c": "cf5caa5f-5474-3cc1-d99a-871e62efd346",
                "VlocityDataPackType": "VlocityMatchingKeyObject",
                "VlocityMatchingRecordSourceKey": "Product2/cf5caa5f-5474-3cc1-d99a-871e62efd346",
                "VlocityRecordSObjectType": "Product2"
            },
            "ProductCode": "VLO-MOB-0005",
            "UnitPrice": 59,
            "UseStandardPrice": false,
            "VlocityDataPackType": "SObject",
            "VlocityRecordSObjectType": "PricebookEntry",
            "VlocityRecordSourceKey": "PricebookEntry/Pricebook2/Standard Price Book/Product2/cf5caa5f-5474-3cc1-d99a-871e62efd346"
        }
    ],
    "VlocityDataPackType": "SObject",
    "VlocityRecordSObjectType": "Product2",
    "VlocityRecordSourceKey": "Product2/cf5caa5f-5474-3cc1-d99a-871e62efd346"
}