{
    "%vlocity_namespace%__Author__c": "Vlocity",
    "%vlocity_namespace%__Datasource__c": "",
    "%vlocity_namespace%__Definition__c": "Campaign-Attribute-Categories.json",
    "%vlocity_namespace%__GlobalKey__c": "Campaign Attribute Categories/Vlocity/1/1512450338024",
    "%vlocity_namespace%__ParentID__c": "",
    "%vlocity_namespace%__Type__c": "",
    "%vlocity_namespace%__Version__c": 1,
    "Name": "Campaign Attribute Categories",
    "VlocityDataPackType": "SObject",
    "VlocityRecordSObjectType": "%vlocity_namespace%__VlocityCard__c",
    "VlocityRecordSourceKey": "%vlocity_namespace%__VlocityCard__c/Campaign Attribute Categories"
}